[gd_scene load_steps=3 format=2]

[ext_resource path="res://assests/Objects/tileEnv.tres" type="TileSet" id=1]
[ext_resource path="res://assests/Objects/coin.tscn" type="PackedScene" id=2]

[node name="p7" type="TileMap"]
tile_set = ExtResource( 1 )
cell_size = Vector2( 32, 32 )
collision_layer = 8
collision_mask = 0
format = 1
tile_data = PoolIntArray( -393211, 22, 0, -131058, 26, 0, -65534, 21, 0, -65524, 20, 0, -65523, 536870914, 0, -65522, 536870913, 0, 8, 25, 0, 9, 536870914, 0, 10, 536870912, 0, 11, 536870912, 0, 12, 28, 0, 13, 6, 0, 14, 536870915, 0, 65536, -1073741801, 0, 65539, 17, 0, 65541, 1, 0, 65542, 536870912, 0, 65543, 536870912, 0, 65544, 28, 0, 65545, 6, 0, 65546, 4, 0, 65547, 536870916, 0, 65548, 536870916, 0, 65549, 4, 0, 65550, 536870918, 0, 65551, 536870940, 0, 65552, 536870912, 0, 65553, 0, 0, 65554, 536870912, 0, 65555, 536870913, 0, 131072, 0, 0, 131073, 0, 0, 131074, 0, 0, 131075, 0, 0, 131076, 28, 0, 131077, 536870919, 0, 131078, 536870916, 0, 131079, 536870916, 0, 131080, 536870916, 0, 131081, 536870916, 0, 131082, 536870916, 0, 131083, 536870916, 0, 131084, 536870916, 0, 131085, 536870916, 0, 131086, 536870916, 0, 131087, 536870916, 0, 131088, 536870916, 0, 131089, 536870916, 0, 131090, 536870916, 0, 131091, 536870918, 0, 196608, -536870908, 0, 196609, -536870908, 0, 196610, -536870908, 0, 196611, -536870906, 0, 196612, -2147483641, 0, 196613, -536870908, 0, 196614, -536870908, 0, 196615, -536870908, 0, 196616, -536870908, 0, 196617, 1610612742, 0, 196618, 1073741830, 0, 196619, -536870908, 0, 196620, -536870908, 0, 196621, -536870908, 0, 196622, -536870906, 0, 196623, -2147483641, 0, 196624, -536870908, 0, 196625, -536870908, 0, 196626, 4, 0, 196627, 4, 0, 262144, -536870908, 0, 262145, -536870908, 0, 262146, -536870908, 0, 262147, -536870905, 0, 262148, -2147483642, 0, 262149, -536870908, 0, 262150, -536870908, 0, 262151, -536870908, 0, 262152, -536870908, 0, 262153, 536870918, 0, 262154, 536870919, 0, 262155, -536870908, 0, 262156, -536870908, 0, 262157, -536870908, 0, 262158, -536870905, 0, 262159, -2147483642, 0, 262160, -536870908, 0, 262161, -536870908, 0, 262162, -536870908, 0, 262163, -536870908, 0, 327680, -536870908, 0, 327681, -536870908, 0, 327682, -536870908, 0, 327683, -536870908, 0, 327684, -536870908, 0, 327685, -536870908, 0, 327686, -536870908, 0, 327687, -536870908, 0, 327688, -536870908, 0, 327689, -536870908, 0, 327690, -536870908, 0, 327691, -536870908, 0, 327692, -536870908, 0, 327693, -536870908, 0, 327694, -536870908, 0, 327695, -536870908, 0, 327696, -536870908, 0, 327697, -536870908, 0, 327698, -536870908, 0, 327699, -536870908, 0, 393216, 4, 0, 393217, 4, 0, 393218, 4, 0, 393219, 4, 0, 393220, 4, 0, 393221, 4, 0, 393222, 4, 0, 393223, 4, 0, 393224, 4, 0, 393225, 4, 0, 393226, 4, 0, 393227, 4, 0, 393228, 4, 0, 393229, 4, 0, 393230, 4, 0, 393231, 4, 0, 393232, 4, 0, 393233, 4, 0, 393234, 4, 0, 393235, 4, 0 )

[node name="bones" type="TileMap" parent="."]
tile_set = ExtResource( 1 )
cell_size = Vector2( 32, 32 )
format = 1
tile_data = PoolIntArray( -65523, 13, 0, 10, -536870899, 0, 65543, 12, 0, 131078, -536870897, 0, 262154, -1610612721, 0, 262162, 15, 0, 458752, 4, 0, 458753, 4, 0, 458754, 4, 0, 458755, 4, 0, 458756, 4, 0, 458757, 4, 0, 458758, 4, 0, 458759, 4, 0, 458760, 4, 0, 458761, 4, 0, 458762, 4, 0, 458763, 4, 0, 458764, 4, 0, 458765, 4, 0, 458766, 4, 0, 458767, 4, 0, 458768, 4, 0, 458769, 4, 0, 458770, 4, 0, 458771, 4, 0, 524288, 4, 0, 524289, 4, 0, 524290, 4, 0, 524291, 4, 0, 524292, 4, 0, 524293, 4, 0, 524294, 4, 0, 524295, 4, 0, 524296, 4, 0, 524297, 4, 0, 524298, 4, 0, 524299, 4, 0, 524300, 4, 0, 524301, 4, 0, 524302, 4, 0, 524303, 4, 0, 524304, 4, 0, 524305, 4, 0, 524306, 4, 0, 524307, 4, 0, 589824, 4, 0, 589825, 4, 0, 589826, 4, 0, 589827, 4, 0, 589828, 4, 0, 589829, 4, 0, 589830, 4, 0, 589831, 4, 0, 589832, 4, 0, 589833, 4, 0, 589834, 4, 0, 589835, 4, 0, 589836, 4, 0, 589837, 4, 0, 589838, 4, 0, 589839, 4, 0, 589840, 4, 0, 589841, 4, 0, 589842, 4, 0, 589843, 4, 0, 655360, 4, 0, 655361, 4, 0, 655362, 4, 0, 655363, 4, 0, 655364, 4, 0, 655365, 4, 0, 655366, 4, 0, 655367, 4, 0, 655368, 4, 0, 655369, 4, 0, 655370, 4, 0, 655371, 4, 0, 655372, 4, 0, 655373, 4, 0, 655374, 4, 0, 655375, 4, 0, 655376, 4, 0, 655377, 4, 0, 655378, 4, 0, 655379, 4, 0 )

[node name="coins" type="Node2D" parent="."]

[node name="coin" parent="coins" instance=ExtResource( 2 )]
position = Vector2( 580.344, 19.3813 )

[node name="coin2" parent="coins" instance=ExtResource( 2 )]
position = Vector2( 429.513, -43.8166 )

[node name="coin3" parent="coins" instance=ExtResource( 2 )]
position = Vector2( 302.14, -12 )

[node name="coin4" parent="coins" instance=ExtResource( 2 )]
position = Vector2( 174.756, 20.4756 )
