[gd_scene load_steps=4 format=2]

[ext_resource path="res://assests/Objects/tileEnv.tres" type="TileSet" id=1]
[ext_resource path="res://assests/Objects/coin.tscn" type="PackedScene" id=2]
[ext_resource path="res://assests/Objects/razor1.tscn" type="PackedScene" id=3]

[node name="p9" type="TileMap"]
tile_set = ExtResource( 1 )
cell_size = Vector2( 32, 32 )
collision_layer = 8
collision_mask = 0
format = 1
tile_data = PoolIntArray( 1, 22, 0, 2, 22, 0, 4, 22, 0, 65537, -1073741801, 0, 65547, -536870889, 0, 65550, 20, 0, 65552, 20, 0, 65554, 20, 0, 131072, 0, 0, 131073, 0, 0, 131074, 0, 0, 131075, 0, 0, 131076, 0, 0, 131077, 0, 0, 131078, 0, 0, 131079, 0, 0, 131080, 0, 0, 131081, 0, 0, 131082, 0, 0, 131083, 536870912, 0, 131084, 536870912, 0, 131085, 536870912, 0, 131086, 536870912, 0, 131087, 536870912, 0, 131088, 536870912, 0, 131089, 0, 0, 131090, 0, 0, 131091, 0, 0, 196608, -536870908, 0, 196609, -536870908, 0, 196610, -536870908, 0, 196611, 4, 0, 196612, 4, 0, 196613, 4, 0, 196614, -536870908, 0, 196615, -536870908, 0, 196616, -536870908, 0, 196617, -536870908, 0, 196618, -536870908, 0, 196619, -536870908, 0, 196620, -536870908, 0, 196621, 4, 0, 196622, 4, 0, 196623, 1610612742, 0, 196624, 1610612743, 0, 196625, 4, 0, 196626, 4, 0, 196627, 4, 0, 262144, -536870908, 0, 262145, -536870908, 0, 262146, -536870908, 0, 262147, 4, 0, 262148, 4, 0, 262149, -1610612729, 0, 262150, 1610612743, 0, 262151, 4, 0, 262152, 4, 0, 262153, 4, 0, 262154, 4, 0, 262155, 4, 0, 262156, 4, 0, 262157, 4, 0, 262158, 4, 0, 262159, 7, 0, 262160, 6, 0, 262161, -536870908, 0, 262162, -536870908, 0, 262163, -536870908, 0, 327680, -536870908, 0, 327681, -536870908, 0, 327682, -536870908, 0, 327683, -536870908, 0, 327684, -536870908, 0, 327685, 7, 0, 327686, -1073741817, 0, 327687, -536870908, 0, 327688, -536870908, 0, 327689, -536870908, 0, 327690, -536870908, 0, 327691, -536870908, 0, 327692, -536870908, 0, 327693, -536870908, 0, 327694, -536870908, 0, 327695, -536870908, 0, 327696, -536870908, 0, 327697, -536870908, 0, 327698, -536870908, 0, 327699, -536870908, 0, 393216, 4, 0, 393217, 4, 0, 393218, 4, 0, 393219, 4, 0, 393220, 4, 0, 393221, 4, 0, 393222, 4, 0, 393223, 4, 0, 393224, 4, 0, 393225, 4, 0, 393226, 4, 0, 393227, 4, 0, 393228, 4, 0, 393229, 4, 0, 393230, 4, 0, 393231, 4, 0, 393232, 4, 0, 393233, 4, 0, 393234, 4, 0, 393235, 4, 0, 458752, 4, 0, 458753, 4, 0, 458754, 4, 0, 458755, 4, 0, 458756, 4, 0, 458757, 4, 0, 458758, 4, 0, 458759, 4, 0, 458760, 4, 0, 458761, 4, 0, 458762, 4, 0, 458763, 4, 0, 458764, 4, 0, 458765, 4, 0, 458766, 4, 0, 458767, 4, 0, 458768, 4, 0, 458769, 4, 0, 458770, 4, 0, 458771, 4, 0, 524288, 4, 0, 524289, 4, 0, 524290, 4, 0, 524291, 4, 0, 524292, 4, 0, 524293, 4, 0, 524294, 4, 0, 524295, 4, 0, 524296, 4, 0, 524297, 4, 0, 524298, 4, 0, 524299, 4, 0, 524300, 4, 0, 524301, 4, 0, 524302, 4, 0, 524303, 4, 0, 524304, 4, 0, 524305, 4, 0, 524306, 4, 0, 524307, 4, 0, 589824, 4, 0, 589825, 4, 0, 589826, 4, 0, 589827, 4, 0, 589828, 4, 0, 589829, 4, 0, 589830, 4, 0, 589831, 4, 0, 589832, 4, 0, 589833, 4, 0, 589834, 4, 0, 589835, 4, 0, 589836, 4, 0, 589837, 4, 0, 589838, 4, 0, 589839, 4, 0, 589840, 4, 0, 589841, 4, 0, 589842, 4, 0, 589843, 4, 0, 655360, 4, 0, 655361, 4, 0, 655362, 4, 0, 655363, 4, 0, 655364, 4, 0, 655365, 4, 0, 655366, 4, 0, 655367, 4, 0, 655368, 4, 0, 655369, 4, 0, 655370, 4, 0, 655371, 4, 0, 655372, 4, 0, 655373, 4, 0, 655374, 4, 0, 655375, 4, 0, 655376, 4, 0, 655377, 4, 0, 655378, 4, 0, 655379, 4, 0 )

[node name="bones" type="TileMap" parent="."]
tile_set = ExtResource( 1 )
cell_size = Vector2( 32, 32 )
format = 1
tile_data = PoolIntArray( 196612, -1610612723, 0, 196617, 1073741839, 0, 196620, -1610612722, 0, 196622, 15, 0, 196626, 12, 0, 262145, -536870897, 0, 393222, 13, 0 )

[node name="coins" type="Node2D" parent="."]

[node name="coin" parent="coins" instance=ExtResource( 2 )]
position = Vector2( 320, 51.6795 )

[node name="coin2" parent="coins" instance=ExtResource( 2 )]
position = Vector2( 480, 51.6795 )

[node name="coin3" parent="coins" instance=ExtResource( 2 )]
position = Vector2( 180, 51.6795 )

[node name="coin4" parent="coins" instance=ExtResource( 2 )]
position = Vector2( 540, 51.6795 )

[node name="coin5" parent="coins" instance=ExtResource( 2 )]
position = Vector2( 510, 51.6795 )

[node name="enemies" type="Node2D" parent="."]

[node name="razor1" parent="enemies" instance=ExtResource( 3 )]
position = Vector2( 240, 70 )

[node name="razor2" parent="enemies" instance=ExtResource( 3 )]
position = Vector2( 120, 70.6673 )

[node name="razor3" parent="enemies" instance=ExtResource( 3 )]
position = Vector2( 400, 70.6673 )
